<mxfile host="app.diagrams.net" modified="2020-10-06T09:32:19.263Z" agent="5.0 (Windows NT 10.0; Win64; x64) AppleWebKit/537.36 (KHTML, like Gecko) Chrome/85.0.4183.121 Safari/537.36" etag="wZgbDMuAwO7zcEq8ZG08" version="13.7.7" type="gitlab">
  <diagram id="Jgm0d7ruMqpYD5DisL_6" name="Page-1">
    <mxGraphModel dx="868" dy="450" grid="1" gridSize="10" guides="1" tooltips="1" connect="1" arrows="1" fold="1" page="1" pageScale="1" pageWidth="827" pageHeight="1169" math="0" shadow="0">
      <root>
        <mxCell id="0" />
        <mxCell id="1" parent="0" />
        <mxCell id="1RBaKqRNuOjQ82P7Fl6F-3" style="edgeStyle=orthogonalEdgeStyle;rounded=0;orthogonalLoop=1;jettySize=auto;html=1;entryX=0;entryY=0.5;entryDx=0;entryDy=0;" edge="1" parent="1" source="1RBaKqRNuOjQ82P7Fl6F-1" target="1RBaKqRNuOjQ82P7Fl6F-2">
          <mxGeometry relative="1" as="geometry" />
        </mxCell>
        <mxCell id="1RBaKqRNuOjQ82P7Fl6F-21" style="edgeStyle=orthogonalEdgeStyle;rounded=0;orthogonalLoop=1;jettySize=auto;html=1;entryX=0;entryY=0.5;entryDx=0;entryDy=0;" edge="1" parent="1" source="1RBaKqRNuOjQ82P7Fl6F-1" target="1RBaKqRNuOjQ82P7Fl6F-16">
          <mxGeometry relative="1" as="geometry">
            <Array as="points">
              <mxPoint x="150" y="470" />
            </Array>
          </mxGeometry>
        </mxCell>
        <mxCell id="1RBaKqRNuOjQ82P7Fl6F-31" style="edgeStyle=orthogonalEdgeStyle;rounded=0;orthogonalLoop=1;jettySize=auto;html=1;entryX=0;entryY=0.625;entryDx=0;entryDy=0;entryPerimeter=0;" edge="1" parent="1" source="1RBaKqRNuOjQ82P7Fl6F-1" target="1RBaKqRNuOjQ82P7Fl6F-26">
          <mxGeometry relative="1" as="geometry">
            <Array as="points">
              <mxPoint x="110" y="100" />
              <mxPoint x="110" y="590" />
            </Array>
          </mxGeometry>
        </mxCell>
        <mxCell id="1RBaKqRNuOjQ82P7Fl6F-1" value="Người dùng" style="rounded=0;whiteSpace=wrap;html=1;" vertex="1" parent="1">
          <mxGeometry x="140" y="70" width="120" height="60" as="geometry" />
        </mxCell>
        <mxCell id="1RBaKqRNuOjQ82P7Fl6F-5" style="edgeStyle=orthogonalEdgeStyle;rounded=0;orthogonalLoop=1;jettySize=auto;html=1;entryX=0;entryY=0.5;entryDx=0;entryDy=0;" edge="1" parent="1" source="1RBaKqRNuOjQ82P7Fl6F-2" target="1RBaKqRNuOjQ82P7Fl6F-4">
          <mxGeometry relative="1" as="geometry" />
        </mxCell>
        <mxCell id="1RBaKqRNuOjQ82P7Fl6F-2" value="Đăng nhập" style="ellipse;whiteSpace=wrap;html=1;" vertex="1" parent="1">
          <mxGeometry x="380" y="60" width="120" height="80" as="geometry" />
        </mxCell>
        <mxCell id="1RBaKqRNuOjQ82P7Fl6F-9" style="edgeStyle=orthogonalEdgeStyle;rounded=0;orthogonalLoop=1;jettySize=auto;html=1;" edge="1" parent="1" source="1RBaKqRNuOjQ82P7Fl6F-4" target="1RBaKqRNuOjQ82P7Fl6F-7">
          <mxGeometry relative="1" as="geometry" />
        </mxCell>
        <mxCell id="1RBaKqRNuOjQ82P7Fl6F-4" value="Thông tin người dùng" style="rounded=0;whiteSpace=wrap;html=1;" vertex="1" parent="1">
          <mxGeometry x="590" y="70" width="120" height="60" as="geometry" />
        </mxCell>
        <mxCell id="1RBaKqRNuOjQ82P7Fl6F-6" value="" style="line;strokeWidth=1;fillColor=none;align=left;verticalAlign=middle;spacingTop=-1;spacingLeft=3;spacingRight=3;rotatable=0;labelPosition=right;points=[];portConstraint=eastwest;" vertex="1" parent="1">
          <mxGeometry x="577.5" y="200" width="150" height="2" as="geometry" />
        </mxCell>
        <mxCell id="1RBaKqRNuOjQ82P7Fl6F-12" style="edgeStyle=orthogonalEdgeStyle;rounded=0;orthogonalLoop=1;jettySize=auto;html=1;entryX=1;entryY=0.5;entryDx=0;entryDy=0;" edge="1" parent="1" source="1RBaKqRNuOjQ82P7Fl6F-7" target="1RBaKqRNuOjQ82P7Fl6F-10">
          <mxGeometry relative="1" as="geometry">
            <Array as="points">
              <mxPoint x="648" y="340" />
            </Array>
          </mxGeometry>
        </mxCell>
        <mxCell id="1RBaKqRNuOjQ82P7Fl6F-7" value="Dữ liệu thông tin&amp;nbsp;&lt;br&gt;người dùng" style="text;html=1;align=center;verticalAlign=middle;resizable=0;points=[];autosize=1;" vertex="1" parent="1">
          <mxGeometry x="592.5" y="203" width="110" height="30" as="geometry" />
        </mxCell>
        <mxCell id="1RBaKqRNuOjQ82P7Fl6F-8" value="" style="line;strokeWidth=1;fillColor=none;align=left;verticalAlign=middle;spacingTop=-1;spacingLeft=3;spacingRight=3;rotatable=0;labelPosition=right;points=[];portConstraint=eastwest;" vertex="1" parent="1">
          <mxGeometry x="577.5" y="232" width="150" height="8" as="geometry" />
        </mxCell>
        <mxCell id="1RBaKqRNuOjQ82P7Fl6F-14" style="edgeStyle=orthogonalEdgeStyle;rounded=0;orthogonalLoop=1;jettySize=auto;html=1;" edge="1" parent="1" source="1RBaKqRNuOjQ82P7Fl6F-10" target="1RBaKqRNuOjQ82P7Fl6F-13">
          <mxGeometry relative="1" as="geometry" />
        </mxCell>
        <mxCell id="1RBaKqRNuOjQ82P7Fl6F-10" value="Đăng nhập gmail" style="ellipse;whiteSpace=wrap;html=1;" vertex="1" parent="1">
          <mxGeometry x="380" y="300" width="120" height="80" as="geometry" />
        </mxCell>
        <mxCell id="1RBaKqRNuOjQ82P7Fl6F-15" style="edgeStyle=orthogonalEdgeStyle;rounded=0;orthogonalLoop=1;jettySize=auto;html=1;entryX=0.667;entryY=1;entryDx=0;entryDy=0;entryPerimeter=0;" edge="1" parent="1" source="1RBaKqRNuOjQ82P7Fl6F-13" target="1RBaKqRNuOjQ82P7Fl6F-1">
          <mxGeometry relative="1" as="geometry" />
        </mxCell>
        <mxCell id="1RBaKqRNuOjQ82P7Fl6F-13" value="Thông tin gmail" style="ellipse;whiteSpace=wrap;html=1;" vertex="1" parent="1">
          <mxGeometry x="160" y="300" width="120" height="80" as="geometry" />
        </mxCell>
        <mxCell id="1RBaKqRNuOjQ82P7Fl6F-20" style="edgeStyle=orthogonalEdgeStyle;rounded=0;orthogonalLoop=1;jettySize=auto;html=1;entryX=0.109;entryY=0.233;entryDx=0;entryDy=0;entryPerimeter=0;" edge="1" parent="1" source="1RBaKqRNuOjQ82P7Fl6F-16" target="1RBaKqRNuOjQ82P7Fl6F-18">
          <mxGeometry relative="1" as="geometry" />
        </mxCell>
        <mxCell id="1RBaKqRNuOjQ82P7Fl6F-16" value="Tìm kiếm gmail" style="ellipse;whiteSpace=wrap;html=1;" vertex="1" parent="1">
          <mxGeometry x="160" y="430" width="120" height="80" as="geometry" />
        </mxCell>
        <mxCell id="1RBaKqRNuOjQ82P7Fl6F-17" value="" style="line;strokeWidth=1;fillColor=none;align=left;verticalAlign=middle;spacingTop=-1;spacingLeft=3;spacingRight=3;rotatable=0;labelPosition=right;points=[];portConstraint=eastwest;" vertex="1" parent="1">
          <mxGeometry x="440" y="461" width="120" height="2" as="geometry" />
        </mxCell>
        <mxCell id="1RBaKqRNuOjQ82P7Fl6F-25" style="edgeStyle=orthogonalEdgeStyle;rounded=0;orthogonalLoop=1;jettySize=auto;html=1;" edge="1" parent="1" source="1RBaKqRNuOjQ82P7Fl6F-18" target="1RBaKqRNuOjQ82P7Fl6F-23">
          <mxGeometry relative="1" as="geometry" />
        </mxCell>
        <mxCell id="1RBaKqRNuOjQ82P7Fl6F-18" value="Dữ liệu thông tin&amp;nbsp;&lt;br&gt;người dùng" style="text;html=1;align=center;verticalAlign=middle;resizable=0;points=[];autosize=1;" vertex="1" parent="1">
          <mxGeometry x="448" y="464" width="110" height="30" as="geometry" />
        </mxCell>
        <mxCell id="1RBaKqRNuOjQ82P7Fl6F-19" value="" style="line;strokeWidth=1;fillColor=none;align=left;verticalAlign=middle;spacingTop=-1;spacingLeft=3;spacingRight=3;rotatable=0;labelPosition=right;points=[];portConstraint=eastwest;" vertex="1" parent="1">
          <mxGeometry x="440" y="493" width="120" height="8" as="geometry" />
        </mxCell>
        <mxCell id="1RBaKqRNuOjQ82P7Fl6F-23" value="Thông tin gmail" style="ellipse;whiteSpace=wrap;html=1;" vertex="1" parent="1">
          <mxGeometry x="620" y="439" width="120" height="80" as="geometry" />
        </mxCell>
        <mxCell id="1RBaKqRNuOjQ82P7Fl6F-32" style="edgeStyle=orthogonalEdgeStyle;rounded=0;orthogonalLoop=1;jettySize=auto;html=1;entryX=0.036;entryY=0.567;entryDx=0;entryDy=0;entryPerimeter=0;" edge="1" parent="1" source="1RBaKqRNuOjQ82P7Fl6F-26" target="1RBaKqRNuOjQ82P7Fl6F-27">
          <mxGeometry relative="1" as="geometry" />
        </mxCell>
        <mxCell id="1RBaKqRNuOjQ82P7Fl6F-34" value="Tiêu đề,&lt;br&gt;nội dung&amp;nbsp;" style="edgeLabel;html=1;align=center;verticalAlign=middle;resizable=0;points=[];" vertex="1" connectable="0" parent="1RBaKqRNuOjQ82P7Fl6F-32">
          <mxGeometry x="-0.2873" y="2" relative="1" as="geometry">
            <mxPoint as="offset" />
          </mxGeometry>
        </mxCell>
        <mxCell id="1RBaKqRNuOjQ82P7Fl6F-26" value="Gửi gmail" style="ellipse;whiteSpace=wrap;html=1;" vertex="1" parent="1">
          <mxGeometry x="170" y="540" width="120" height="80" as="geometry" />
        </mxCell>
        <mxCell id="1RBaKqRNuOjQ82P7Fl6F-37" style="edgeStyle=orthogonalEdgeStyle;rounded=0;orthogonalLoop=1;jettySize=auto;html=1;entryX=0;entryY=0.5;entryDx=0;entryDy=0;" edge="1" parent="1" source="1RBaKqRNuOjQ82P7Fl6F-27" target="1RBaKqRNuOjQ82P7Fl6F-36">
          <mxGeometry relative="1" as="geometry" />
        </mxCell>
        <mxCell id="1RBaKqRNuOjQ82P7Fl6F-27" value="Dữ liệu thông tin&amp;nbsp;&lt;br&gt;người dùng" style="text;html=1;align=center;verticalAlign=middle;resizable=0;points=[];autosize=1;" vertex="1" parent="1">
          <mxGeometry x="446" y="563" width="110" height="30" as="geometry" />
        </mxCell>
        <mxCell id="1RBaKqRNuOjQ82P7Fl6F-28" value="" style="line;strokeWidth=1;fillColor=none;align=left;verticalAlign=middle;spacingTop=-1;spacingLeft=3;spacingRight=3;rotatable=0;labelPosition=right;points=[];portConstraint=eastwest;" vertex="1" parent="1">
          <mxGeometry x="438" y="560" width="120" height="2" as="geometry" />
        </mxCell>
        <mxCell id="1RBaKqRNuOjQ82P7Fl6F-29" value="" style="line;strokeWidth=1;fillColor=none;align=left;verticalAlign=middle;spacingTop=-1;spacingLeft=3;spacingRight=3;rotatable=0;labelPosition=right;points=[];portConstraint=eastwest;" vertex="1" parent="1">
          <mxGeometry x="438" y="592" width="120" height="8" as="geometry" />
        </mxCell>
        <mxCell id="1RBaKqRNuOjQ82P7Fl6F-36" value="Thực hiện gửi gmail" style="ellipse;whiteSpace=wrap;html=1;" vertex="1" parent="1">
          <mxGeometry x="620" y="538" width="120" height="80" as="geometry" />
        </mxCell>
      </root>
    </mxGraphModel>
  </diagram>
</mxfile>
